Inst 	 Benchmark 	 CH1 	 Deviation 	 CH1-FI 	 Deviation 	 CH1-BI 	 Deviation 	 CH2 	 Deviation 	 CH2-FI 	 Deviation 	 CH2-BI 	 Deviation 	 CH3 	 Deviation 	 CH3-FI 	 Deviation 	 CH3-BI 	 Deviation 	 CH1-RE 	 Deviation 	 CH1-RE-FI 	 Deviation 	 CH1-RE-BI 	 Deviation 	 CH2-RE 	 Deviation 	 CH2-RE-FI 	 Deviation 	 CH2-RE-BI 	 Deviation 	 CH3-RE 	 Deviation 	 CH3-RE-FI 	 Deviation 	 CH3-RE-BI 	 Deviation
42	512	582	13.6719	522	1.95312	522	1.95312	592	15.625	541	5.66406	522	1.95312	605	18.1641	541	5.66406	522	1.95312	529	3.32031	522	1.95312	522	1.95312	580	13.2812	562	9.76562	522	1.95312	572	11.7188	547	6.83594	522	1.95312
43	516	598	15.8915	532	3.10078	531	2.90698	602	16.6667	537	4.06977	528	2.32558	568	10.0775	534	3.48837	534	3.48837	540	4.65116	532	3.10078	531	2.90698	549	6.39535	530	2.71318	534	3.48837	551	6.78295	534	3.48837	534	3.48837
44	494	548	10.9312	506	2.42915	506	2.42915	601	21.6599	516	4.45344	517	4.65587	564	14.17	529	7.08502	529	7.08502	512	3.64372	506	2.42915	506	2.42915	558	12.9555	519	5.06073	519	5.06073	532	7.69231	529	7.08502	529	7.08502
45	512	577	12.6953	519	1.36719	519	1.36719	608	18.75	529	3.32031	529	3.32031	557	8.78906	527	2.92969	527	2.92969	519	1.36719	519	1.36719	519	1.36719	529	3.32031	529	3.32031	529	3.32031	527	2.92969	527	2.92969	527	2.92969
46	560	615	9.82143	586	4.64286	584	4.28571	677	20.8929	626	11.7857	585	4.46429	622	11.0714	584	4.28571	586	4.64286	602	7.5	564	0.714286	584	4.28571	623	11.25	599	6.96429	584	4.28571	615	9.82143	573	2.32143	586	4.64286
47	430	476	10.6977	432	0.465116	432	0.465116	507	17.907	451	4.88372	444	3.25581	471	9.53488	438	1.86047	438	1.86047	447	3.95349	432	0.465116	432	0.465116	472	9.76744	458	6.51163	437	1.62791	450	4.65116	438	1.86047	438	1.86047
48	492	533	8.33333	514	4.47154	514	4.47154	585	18.9024	518	5.28455	500	1.62602	561	14.0244	500	1.62602	500	1.62602	525	6.70732	514	4.47154	514	4.47154	518	5.28455	505	2.64228	505	2.64228	510	3.65854	500	1.62602	500	1.62602
49	641	747	16.5367	663	3.43214	663	3.43214	802	25.117	674	5.14821	690	7.64431	779	21.5289	685	6.86427	670	4.52418	664	3.58814	663	3.43214	663	3.43214	705	9.9844	682	6.39626	670	4.52418	705	9.9844	688	7.33229	670	4.52418
51	253	289	14.2292	264	4.34783	264	4.34783	298	17.7866	268	5.92885	268	5.92885	299	18.1818	268	5.92885	271	7.11462	269	6.32411	264	4.34783	264	4.34783	281	11.0672	267	5.5336	267	5.5336	287	13.4387	278	9.88142	271	7.11462
52	302	348	15.2318	321	6.29139	325	7.61589	387	28.1457	360	19.2053	319	5.62914	360	19.2053	320	5.96026	320	5.96026	330	9.27152	325	7.61589	325	7.61589	325	7.61589	321	6.29139	321	6.29139	326	7.94702	312	3.31126	320	5.96026
53	226	246	8.84956	229	1.32743	229	1.32743	268	18.5841	243	7.52212	243	7.52212	267	18.1416	243	7.52212	243	7.52212	232	2.65487	229	1.32743	229	1.32743	251	11.0619	244	7.9646	243	7.52212	247	9.29204	243	7.52212	243	7.52212
54	242	265	9.50413	245	1.23967	245	1.23967	282	16.5289	245	1.23967	245	1.23967	276	14.0496	245	1.23967	245	1.23967	250	3.30578	245	1.23967	245	1.23967	257	6.19835	252	4.13223	248	2.47934	258	6.61157	245	1.23967	245	1.23967
55	211	236	11.8483	218	3.31754	218	3.31754	244	15.6398	215	1.89573	215	1.89573	246	16.5877	215	1.89573	215	1.89573	218	3.31754	218	3.31754	218	3.31754	225	6.63507	212	0.473934	212	0.473934	228	8.05687	215	1.89573	215	1.89573
56	213	251	17.8404	220	3.28638	220	3.28638	278	30.5164	238	11.7371	219	2.8169	272	27.6995	261	22.5352	230	7.98122	227	6.57277	220	3.28638	220	3.28638	249	16.9014	216	1.40845	216	1.40845	248	16.4319	227	6.57277	216	1.40845
57	293	326	11.2628	304	3.75427	305	4.09556	357	21.843	317	8.19113	317	8.19113	339	15.6997	314	7.16724	314	7.16724	310	5.80205	305	4.09556	305	4.09556	326	11.2628	316	7.84983	317	8.19113	321	9.55631	316	7.84983	314	7.16724
58	288	323	12.1528	303	5.20833	303	5.20833	346	20.1389	312	8.33333	300	4.16667	348	20.8333	305	5.90278	304	5.55556	311	7.98611	303	5.20833	303	5.20833	321	11.4583	306	6.25	307	6.59722	323	12.1528	300	4.16667	304	5.55556
59	279	312	11.828	281	0.716846	282	1.07527	343	22.9391	298	6.81004	292	4.6595	337	20.7885	293	5.01792	292	4.6595	292	4.6595	290	3.94265	281	0.716846	315	12.9032	283	1.43369	292	4.6595	315	12.9032	281	0.716846	292	4.6595
61	138	159	15.2174	141	2.17391	143	3.62319	178	28.9855	153	10.8696	151	9.42029	180	30.4348	154	11.5942	154	11.5942	144	4.34783	143	3.62319	143	3.62319	160	15.942	156	13.0435	156	13.0435	154	11.5942	154	11.5942	154	11.5942
62	146	170	16.4384	151	3.42466	151	3.42466	197	34.9315	158	8.21918	158	8.21918	180	23.2877	171	17.1233	151	3.42466	156	6.84932	151	3.42466	151	3.42466	154	5.47945	154	5.47945	154	5.47945	162	10.9589	158	8.21918	158	8.21918
63	145	161	11.0345	151	4.13793	153	5.51724	171	17.931	150	3.44828	150	3.44828	176	21.3793	154	6.2069	154	6.2069	157	8.27586	153	5.51724	153	5.51724	162	11.7241	151	4.13793	151	4.13793	168	15.8621	154	6.2069	154	6.2069
64	131	149	13.7405	138	5.34351	134	2.29008	157	19.8473	138	5.34351	137	4.58015	158	20.6107	132	0.763359	134	2.29008	140	6.87023	134	2.29008	134	2.29008	140	6.87023	138	5.34351	134	2.29008	140	6.87023	132	0.763359	134	2.29008
65	161	196	21.7391	178	10.559	178	10.559	192	19.2547	178	10.559	172	6.8323	213	32.2981	176	9.31677	182	13.0435	186	15.528	179	11.1801	178	10.559	192	19.2547	177	9.93789	177	9.93789	189	17.3913	181	12.4224	182	13.0435
a1	253	288	13.834	265	4.74308	260	2.7668	285	12.6482	262	3.55731	259	2.37154	278	9.88142	261	3.16206	261	3.16206	262	3.55731	260	2.7668	260	2.7668	266	5.13834	261	3.16206	261	3.16206	269	6.32411	263	3.95257	261	3.16206
a2	252	284	12.6984	261	3.57143	261	3.57143	310	23.0159	271	7.53968	266	5.55556	307	21.8254	262	3.96825	265	5.15873	272	7.93651	265	5.15873	261	3.57143	285	13.0952	268	6.34921	268	6.34921	287	13.8889	268	6.34921	265	5.15873
a3	232	270	16.3793	243	4.74138	243	4.74138	287	23.7069	244	5.17241	242	4.31034	275	18.5345	247	6.46552	248	6.89655	245	5.60345	243	4.74138	243	4.74138	255	9.91379	251	8.18966	245	5.60345	257	10.7759	249	7.32759	248	6.89655
a4	234	278	18.8034	244	4.2735	244	4.2735	270	15.3846	249	6.41026	249	6.41026	269	14.9573	247	5.55556	247	5.55556	248	5.98291	244	4.2735	244	4.2735	251	7.26496	247	5.55556	247	5.55556	254	8.54701	247	5.55556	247	5.55556
a5	236	271	14.8305	241	2.11864	241	2.11864	286	21.1864	241	2.11864	243	2.9661	268	13.5593	240	1.69492	240	1.69492	251	6.35593	241	2.11864	241	2.11864	246	4.23729	243	2.9661	243	2.9661	245	3.81356	240	1.69492	240	1.69492
b1	69	77	11.5942	74	7.24638	74	7.24638	95	37.6812	79	14.4928	81	17.3913	93	34.7826	78	13.0435	79	14.4928	74	7.24638	74	7.24638	74	7.24638	86	24.6377	79	14.4928	79	14.4928	86	24.6377	76	10.1449	79	14.4928
b2	76	86	13.1579	78	2.63158	78	2.63158	99	30.2632	85	11.8421	87	14.4737	104	36.8421	88	15.7895	90	18.4211	78	2.63158	78	2.63158	78	2.63158	88	15.7895	86	13.1579	86	13.1579	92	21.0526	88	15.7895	90	18.4211
b3	80	89	11.25	82	2.5	82	2.5	102	27.5	89	11.25	92	15	97	21.25	85	6.25	85	6.25	82	2.5	82	2.5	82	2.5	88	10	87	8.75	87	8.75	85	6.25	85	6.25	85	6.25
b4	79	89	12.6582	83	5.06329	83	5.06329	103	30.3797	87	10.1266	85	7.59494	103	30.3797	84	6.32911	84	6.32911	83	5.06329	83	5.06329	83	5.06329	86	8.86076	85	7.59494	85	7.59494	85	7.59494	84	6.32911	84	6.32911
b5	72	78	8.33333	73	1.38889	73	1.38889	94	30.5556	80	11.1111	79	9.72222	87	20.8333	78	8.33333	77	6.94444	75	4.16667	73	1.38889	73	1.38889	79	9.72222	78	8.33333	76	5.55556	80	11.1111	77	6.94444	77	6.94444
c1	227	258	13.6564	234	3.0837	236	3.96476	271	19.3833	236	3.96476	236	3.96476	258	13.6564	239	5.28634	239	5.28634	239	5.28634	236	3.96476	236	3.96476	247	8.81057	236	3.96476	240	5.72687	242	6.60793	238	4.84582	239	5.28634
c2	219	258	17.8082	237	8.21918	225	2.73973	270	23.2877	230	5.02283	229	4.56621	272	24.2009	234	6.84932	234	6.84932	225	2.73973	225	2.73973	225	2.73973	240	9.58904	231	5.47945	230	5.02283	245	11.8721	234	6.84932	234	6.84932
c3	243	276	13.5802	252	3.7037	252	3.7037	324	33.3333	268	10.2881	270	11.1111	313	28.8066	267	9.87654	270	11.1111	257	5.76132	252	3.7037	252	3.7037	286	17.6955	273	12.3457	265	9.0535	283	16.4609	272	11.9342	270	11.1111
c4	219	257	17.3516	232	5.93607	232	5.93607	273	24.6575	238	8.6758	240	9.58904	270	23.2877	238	8.6758	240	9.58904	237	8.21918	232	5.93607	232	5.93607	254	15.9817	243	10.9589	240	9.58904	247	12.7854	239	9.13242	240	9.58904
c5	215	233	8.37209	217	0.930233	217	0.930233	269	25.1163	221	2.7907	218	1.39535	241	12.093	219	1.86047	221	2.7907	219	1.86047	217	0.930233	217	0.930233	228	6.04651	220	2.32558	221	2.7907	228	6.04651	221	2.7907	221	2.7907
d1	60	74	23.3333	65	8.33333	66	10	71	18.3333	61	1.66667	61	1.66667	77	28.3333	65	8.33333	65	8.33333	67	11.6667	66	10	66	10	68	13.3333	65	8.33333	65	8.33333	67	11.6667	65	8.33333	65	8.33333
d2	66	74	12.1212	69	4.54545	69	4.54545	83	25.7576	72	9.09091	71	7.57576	82	24.2424	73	10.6061	71	7.57576	71	7.57576	69	4.54545	69	4.54545	75	13.6364	75	13.6364	75	13.6364	74	12.1212	73	10.6061	71	7.57576
d3	72	83	15.2778	80	11.1111	80	11.1111	92	27.7778	79	9.72222	79	9.72222	95	31.9444	78	8.33333	78	8.33333	80	11.1111	80	11.1111	80	11.1111	83	15.2778	78	8.33333	79	9.72222	79	9.72222	78	8.33333	78	8.33333
d4	62	71	14.5161	64	3.22581	65	4.83871	73	17.7419	65	4.83871	65	4.83871	79	27.4194	68	9.67742	68	9.67742	68	9.67742	65	4.83871	65	4.83871	68	9.67742	68	9.67742	68	9.67742	69	11.2903	68	9.67742	68	9.67742
d5	61	69	13.1148	64	4.91803	64	4.91803	76	24.5902	65	6.55738	65	6.55738	79	29.5082	72	18.0328	64	4.91803	66	8.19672	64	4.91803	64	4.91803	66	8.19672	64	4.91803	64	4.91803	65	6.55738	64	4.91803	64	4.91803
