Inst 	 Benchmark 	 CH1 	 Deviation 	 CH1-FI 	 Deviation 	 CH1-BI 	 Deviation 	 CH2 	 Deviation 	 CH2-FI 	 Deviation 	 CH2-BI 	 Deviation 	 CH3 	 Deviation 	 CH3-FI 	 Deviation 	 CH3-BI 	 Deviation 	 CH1-RE 	 Deviation 	 CH1-RE-FI 	 Deviation 	 CH1-RE-BI 	 Deviation 	 CH2-RE 	 Deviation 	 CH2-RE-FI 	 Deviation 	 CH2-RE-BI 	 Deviation 	 CH3-RE 	 Deviation 	 CH3-RE-FI 	 Deviation 	 CH3-RE-BI 	 Deviation
42	512	582	13.6719	548	7.03125	522	1.95312	616	20.3125	550	7.42188	520	1.5625	605	18.1641	547	6.83594	522	1.95312	529	3.32031	522	1.95312	522	1.95312	573	11.9141	540	5.46875	520	1.5625	572	11.7188	547	6.83594	522	1.95312
43	516	598	15.8915	532	3.10078	531	2.90698	618	19.7674	544	5.42636	534	3.48837	568	10.0775	534	3.48837	534	3.48837	540	4.65116	532	3.10078	531	2.90698	545	5.62016	530	2.71318	534	3.48837	551	6.78295	530	2.71318	534	3.48837
44	494	548	10.9312	506	2.42915	506	2.42915	599	21.2551	539	9.10931	522	5.66802	564	14.17	533	7.89474	529	7.08502	512	3.64372	506	2.42915	506	2.42915	552	11.7409	517	4.65587	520	5.26316	532	7.69231	529	7.08502	529	7.08502
45	512	577	12.6953	519	1.36719	519	1.36719	610	19.1406	530	3.51562	530	3.51562	557	8.78906	527	2.92969	527	2.92969	519	1.36719	519	1.36719	519	1.36719	545	6.44531	544	6.25	544	6.25	527	2.92969	527	2.92969	527	2.92969
46	560	615	9.82143	574	2.5	584	4.28571	663	18.3929	584	4.28571	584	4.28571	622	11.0714	580	3.57143	586	4.64286	602	7.5	574	2.5	584	4.28571	613	9.46429	579	3.39286	584	4.28571	615	9.82143	592	5.71429	586	4.64286
47	430	476	10.6977	432	0.465116	432	0.465116	533	23.9535	467	8.60465	467	8.60465	471	9.53488	438	1.86047	438	1.86047	447	3.95349	432	0.465116	432	0.465116	459	6.74419	457	6.27907	457	6.27907	450	4.65116	438	1.86047	438	1.86047
48	492	533	8.33333	514	4.47154	514	4.47154	572	16.2602	505	2.64228	505	2.64228	561	14.0244	500	1.62602	500	1.62602	525	6.70732	514	4.47154	514	4.47154	518	5.28455	505	2.64228	505	2.64228	510	3.65854	500	1.62602	500	1.62602
49	641	747	16.5367	663	3.43214	663	3.43214	758	18.2527	693	8.11232	684	6.70827	779	21.5289	684	6.70827	670	4.52418	664	3.58814	663	3.43214	663	3.43214	713	11.2324	679	5.92824	690	7.64431	705	9.9844	684	6.70827	670	4.52418
51	253	289	14.2292	268	5.92885	264	4.34783	298	17.7866	268	5.92885	268	5.92885	299	18.1818	270	6.71937	271	7.11462	269	6.32411	264	4.34783	264	4.34783	290	14.6245	268	5.92885	267	5.5336	287	13.4387	270	6.71937	271	7.11462
52	302	348	15.2318	325	7.61589	325	7.61589	362	19.8675	319	5.62914	319	5.62914	360	19.2053	320	5.96026	320	5.96026	330	9.27152	322	6.62252	325	7.61589	329	8.9404	320	5.96026	320	5.96026	326	7.94702	320	5.96026	320	5.96026
53	226	246	8.84956	229	1.32743	229	1.32743	264	16.8142	244	7.9646	243	7.52212	267	18.1416	243	7.52212	243	7.52212	232	2.65487	228	0.884956	229	1.32743	250	10.6195	243	7.52212	243	7.52212	247	9.29204	243	7.52212	243	7.52212
54	242	265	9.50413	245	1.23967	245	1.23967	286	18.1818	253	4.54545	248	2.47934	276	14.0496	245	1.23967	245	1.23967	250	3.30578	245	1.23967	245	1.23967	252	4.13223	242	0	242	0	258	6.61157	245	1.23967	245	1.23967
55	211	236	11.8483	218	3.31754	218	3.31754	255	20.8531	216	2.36967	212	0.473934	246	16.5877	213	0.947867	215	1.89573	218	3.31754	218	3.31754	218	3.31754	231	9.47867	220	4.2654	220	4.2654	228	8.05687	213	0.947867	215	1.89573
56	213	251	17.8404	220	3.28638	220	3.28638	272	27.6995	227	6.57277	230	7.98122	272	27.6995	229	7.51174	230	7.98122	227	6.57277	220	3.28638	220	3.28638	248	16.4319	239	12.2066	225	5.6338	248	16.4319	227	6.57277	216	1.40845
57	293	326	11.2628	304	3.75427	305	4.09556	363	23.8908	310	5.80205	318	8.53242	339	15.6997	314	7.16724	314	7.16724	310	5.80205	305	4.09556	305	4.09556	324	10.5802	317	8.19113	317	8.19113	321	9.55631	314	7.16724	314	7.16724
58	288	323	12.1528	303	5.20833	303	5.20833	376	30.5556	305	5.90278	304	5.55556	348	20.8333	305	5.90278	304	5.55556	311	7.98611	303	5.20833	303	5.20833	327	13.5417	314	9.02778	307	6.59722	323	12.1528	313	8.68056	304	5.55556
59	279	312	11.828	282	1.07527	282	1.07527	341	22.2222	284	1.79211	296	6.09319	337	20.7885	292	4.6595	292	4.6595	292	4.6595	290	3.94265	281	0.716846	315	12.9032	296	6.09319	292	4.6595	315	12.9032	295	5.73477	292	4.6595
61	138	159	15.2174	143	3.62319	143	3.62319	181	31.1594	158	14.4928	154	11.5942	180	30.4348	154	11.5942	154	11.5942	144	4.34783	143	3.62319	143	3.62319	156	13.0435	155	12.3188	155	12.3188	154	11.5942	154	11.5942	154	11.5942
62	146	170	16.4384	151	3.42466	151	3.42466	181	23.9726	158	8.21918	158	8.21918	180	23.2877	160	9.58904	151	3.42466	156	6.84932	151	3.42466	151	3.42466	159	8.90411	156	6.84932	154	5.47945	162	10.9589	158	8.21918	158	8.21918
63	145	161	11.0345	150	3.44828	153	5.51724	183	26.2069	156	7.58621	158	8.96552	176	21.3793	154	6.2069	154	6.2069	157	8.27586	148	2.06897	153	5.51724	164	13.1034	150	3.44828	150	3.44828	168	15.8621	154	6.2069	154	6.2069
64	131	149	13.7405	134	2.29008	134	2.29008	147	12.2137	132	0.763359	134	2.29008	158	20.6107	135	3.05344	134	2.29008	140	6.87023	135	3.05344	134	2.29008	140	6.87023	139	6.10687	134	2.29008	140	6.87023	139	6.10687	134	2.29008
65	161	196	21.7391	178	10.559	178	10.559	200	24.2236	178	10.559	172	6.8323	213	32.2981	178	10.559	182	13.0435	186	15.528	176	9.31677	178	10.559	191	18.6335	173	7.45342	175	8.69565	189	17.3913	169	4.96894	182	13.0435
a1	253	288	13.834	260	2.7668	260	2.7668	296	16.996	259	2.37154	259	2.37154	278	9.88142	262	3.55731	261	3.16206	262	3.55731	260	2.7668	260	2.7668	264	4.34783	260	2.7668	260	2.7668	269	6.32411	261	3.16206	261	3.16206
a2	252	284	12.6984	265	5.15873	261	3.57143	318	26.1905	276	9.52381	267	5.95238	307	21.8254	270	7.14286	265	5.15873	272	7.93651	260	3.1746	261	3.57143	281	11.5079	272	7.93651	265	5.15873	287	13.8889	269	6.74603	265	5.15873
a3	232	270	16.3793	243	4.74138	243	4.74138	283	21.9828	246	6.03448	245	5.60345	275	18.5345	248	6.89655	248	6.89655	245	5.60345	243	4.74138	243	4.74138	257	10.7759	251	8.18966	248	6.89655	257	10.7759	245	5.60345	248	6.89655
a4	234	278	18.8034	244	4.2735	244	4.2735	279	19.2308	247	5.55556	247	5.55556	269	14.9573	248	5.98291	247	5.55556	248	5.98291	244	4.2735	244	4.2735	256	9.40171	248	5.98291	248	5.98291	254	8.54701	247	5.55556	247	5.55556
a5	236	271	14.8305	241	2.11864	241	2.11864	272	15.2542	249	5.50847	249	5.50847	268	13.5593	240	1.69492	240	1.69492	251	6.35593	244	3.38983	241	2.11864	249	5.50847	244	3.38983	243	2.9661	245	3.81356	240	1.69492	240	1.69492
b1	69	77	11.5942	74	7.24638	74	7.24638	90	30.4348	77	11.5942	81	17.3913	93	34.7826	79	14.4928	79	14.4928	74	7.24638	74	7.24638	74	7.24638	86	24.6377	76	10.1449	79	14.4928	86	24.6377	78	13.0435	79	14.4928
b2	76	86	13.1579	78	2.63158	78	2.63158	101	32.8947	85	11.8421	88	15.7895	104	36.8421	88	15.7895	90	18.4211	78	2.63158	78	2.63158	78	2.63158	88	15.7895	86	13.1579	86	13.1579	92	21.0526	82	7.89474	90	18.4211
b3	80	89	11.25	82	2.5	82	2.5	95	18.75	84	5	85	6.25	97	21.25	85	6.25	85	6.25	82	2.5	82	2.5	82	2.5	91	13.75	88	10	88	10	85	6.25	85	6.25	85	6.25
b4	79	89	12.6582	83	5.06329	83	5.06329	108	36.7089	85	7.59494	85	7.59494	103	30.3797	84	6.32911	84	6.32911	83	5.06329	83	5.06329	83	5.06329	84	6.32911	84	6.32911	84	6.32911	85	7.59494	84	6.32911	84	6.32911
b5	72	78	8.33333	73	1.38889	73	1.38889	94	30.5556	74	2.77778	76	5.55556	87	20.8333	77	6.94444	77	6.94444	75	4.16667	74	2.77778	73	1.38889	80	11.1111	77	6.94444	77	6.94444	80	11.1111	78	8.33333	77	6.94444
c1	227	258	13.6564	234	3.0837	236	3.96476	271	19.3833	237	4.40529	240	5.72687	258	13.6564	239	5.28634	239	5.28634	239	5.28634	236	3.96476	236	3.96476	241	6.1674	237	4.40529	238	4.84582	242	6.60793	239	5.28634	239	5.28634
c2	219	258	17.8082	243	10.9589	225	2.73973	275	25.5708	240	9.58904	235	7.30594	272	24.2009	231	5.47945	234	6.84932	225	2.73973	225	2.73973	225	2.73973	243	10.9589	239	9.13242	228	4.10959	245	11.8721	233	6.39269	234	6.84932
c3	243	276	13.5802	252	3.7037	252	3.7037	309	27.1605	261	7.40741	264	8.64198	313	28.8066	265	9.0535	270	11.1111	257	5.76132	252	3.7037	252	3.7037	279	14.8148	271	11.5226	269	10.6996	283	16.4609	272	11.9342	270	11.1111
c4	219	257	17.3516	232	5.93607	232	5.93607	282	28.7671	240	9.58904	234	6.84932	270	23.2877	238	8.6758	240	9.58904	237	8.21918	232	5.93607	232	5.93607	247	12.7854	238	8.6758	238	8.6758	247	12.7854	239	9.13242	240	9.58904
c5	215	233	8.37209	217	0.930233	217	0.930233	259	20.4651	218	1.39535	218	1.39535	241	12.093	221	2.7907	221	2.7907	219	1.86047	217	0.930233	217	0.930233	227	5.5814	225	4.65116	225	4.65116	228	6.04651	219	1.86047	221	2.7907
d1	60	74	23.3333	64	6.66667	66	10	81	35	67	11.6667	68	13.3333	77	28.3333	65	8.33333	65	8.33333	67	11.6667	65	8.33333	66	10	67	11.6667	64	6.66667	65	8.33333	67	11.6667	65	8.33333	65	8.33333
d2	66	74	12.1212	69	4.54545	69	4.54545	83	25.7576	73	10.6061	73	10.6061	82	24.2424	71	7.57576	71	7.57576	71	7.57576	69	4.54545	69	4.54545	76	15.1515	75	13.6364	73	10.6061	74	12.1212	71	7.57576	71	7.57576
d3	72	83	15.2778	80	11.1111	80	11.1111	90	25	79	9.72222	79	9.72222	95	31.9444	78	8.33333	78	8.33333	80	11.1111	80	11.1111	80	11.1111	80	11.1111	79	9.72222	79	9.72222	79	9.72222	78	8.33333	78	8.33333
d4	62	71	14.5161	65	4.83871	65	4.83871	78	25.8064	65	4.83871	65	4.83871	79	27.4194	68	9.67742	68	9.67742	68	9.67742	65	4.83871	65	4.83871	66	6.45161	65	4.83871	65	4.83871	69	11.2903	66	6.45161	68	9.67742
d5	61	69	13.1148	64	4.91803	64	4.91803	78	27.8689	65	6.55738	65	6.55738	79	29.5082	77	26.2295	64	4.91803	66	8.19672	64	4.91803	64	4.91803	65	6.55738	64	4.91803	64	4.91803	65	6.55738	64	4.91803	64	4.91803
