Inst 	 Benchmark 	 It 20 Avg 	 It 50 Avg 	 It 100 Avg 	 It 200 Avg 
42	512	840	760	716	657
43	516	802	791	791	719
44	494	773	753	753	753
45	512	699	699	699	699
46	560	838	838	838	838
47	430	657	633	528	528
48	492	787	715	715	691
49	641	859	859	850	850
51	253	437	434	434	434
52	302	533	517	517	457
53	226	411	363	363	363
54	242	435	435	435	430
55	211	463	463	416	392
56	213	504	504	463	382
57	293	574	510	510	510
58	288	573	456	456	456
59	279	487	487	487	478
61	138	230	223	192	192
62	146	265	235	222	222
63	145	237	237	217	204
64	131	249	249	231	231
65	161	280	280	280	251
a1	253	558	558	551	515
a2	252	651	482	480	480
a3	232	422	422	422	422
a4	234	494	494	461	461
a5	236	608	561	486	486
b1	69	202	137	137	137
b2	76	159	159	159	159
b3	80	233	170	153	153
b4	79	177	177	175	175
b5	72	186	186	186	186
c1	227	707	543	543	540
c2	219	537	537	481	481
c3	243	576	537	537	511
c4	219	496	496	496	496
c5	215	580	522	522	516
d1	60	175	175	151	144
d2	66	197	197	170	167
d3	72	187	187	160	160
d4	62	220	201	188	157
d5	61	196	196	196	177
