Inst 	 Benchmark 	 It 20 Avg 	 It 50 Avg 	 It 100 Avg 	 It 200 Avg 
42	512	787	754	747	744
43	516	750	750	750	750
44	494	714	714	714	714
45	512	782	738	664	664
46	560	864	798	798	798
47	430	627	627	627	627
48	492	787	771	729	694
49	641	1002	907	907	885
51	253	466	421	421	421
52	302	516	516	516	516
53	226	487	434	430	380
54	242	472	390	390	390
55	211	509	407	407	398
56	213	521	474	474	457
57	293	552	552	531	531
58	288	498	498	498	498
59	279	565	468	468	468
61	138	232	232	202	202
62	146	235	226	226	202
63	145	262	262	237	195
64	131	239	239	239	230
65	161	309	290	274	249
a1	253	538	538	486	486
a2	252	588	588	504	504
a3	232	442	442	442	442
a4	234	531	435	435	435
a5	236	498	498	498	498
b1	69	189	179	165	158
b2	76	176	176	173	173
b3	80	227	227	169	169
b4	79	222	195	194	175
b5	72	183	158	158	158
c1	227	634	538	531	531
c2	219	704	531	531	531
c3	243	605	538	521	510
c4	219	553	553	529	484
c5	215	559	559	550	498
d1	60	173	173	157	151
d2	66	195	179	179	145
d3	72	199	167	167	154
d4	62	215	194	194	183
d5	61	226	190	186	186
