Inst 	 It 20 	 It 50 	 It 100 	 It 200 
42	6864356	17675156	36223310	73027105
43	7353395	17858467	36011126	71341771
44	7201383	17211602	35517690	69958360
45	7590247	18348845	36798289	72815645
46	6812535	17477785	34781166	70519824
47	7370968	18870184	36921829	74926872
48	6720872	16970484	35333169	69563982
49	7199041	17845930	36102689	72015610
51	15717225	39513104	78374429	155073241
52	15223143	40161201	78388311	155043652
53	15116248	38682020	75624748	153449020
54	14957116	38006909	77918361	156392933
55	15820535	37761718	77976514	154939360
56	17199561	40089085	76619475	153430822
57	14772479	37921584	78129984	155188745
58	14154587	38305490	75072439	154381356
59	16062626	39443549	79712225	158256465
61	5422748	14282716	29621435	59588748
62	5604650	14098148	28302726	56468896
63	5818558	14200295	28651756	57430087
64	5690951	14469373	28555086	55750379
65	5495421	14371905	28128829	56429640
a1	32308384	84515679	172002526	346802436
a2	36584886	86538684	174499499	355266174
a3	32894825	88576511	176887488	340199247
a4	34283357	85420917	177352289	349468553
a5	35943736	88816650	172293825	339851894
b1	27697076	68453525	141367805	280132393
b2	27286182	67667944	138381873	271781852
b3	26540182	70290494	136921137	276187363
b4	26833683	65293691	137367694	268803835
b5	29207182	73241299	141708921	278893129
c1	58166111	149106036	290788742	599074283
c2	64528508	165981874	309805467	611743513
c3	56595971	150003932	308085922	618432349
c4	60519689	152659459	313767230	631892835
c5	64841188	151465033	299986764	604859303
d1	46232447	115029607	230735972	461403721
d2	49467635	124933830	242701447	480673180
d3	48193958	121928875	240972297	481399732
d4	47006327	115847460	229631276	475166878
d5	51568593	120001902	234196583	475276051
