Inst 	 Benchmark 	 It 20 Avg 	 It 50 Avg 	 It 100 Avg 	 It 200 Avg 
42	512	517	514	514	514
43	516	530	528	528	528
44	494	499	496	496	496
45	512	518	515	515	515
46	560	564	561	561	561
47	430	432	432	432	432
48	492	500	500	499	493
49	641	666	664	650	650
51	253	259	259	258	258
52	302	310	310	308	308
53	226	229	229	226	226
54	242	247	247	247	245
55	211	220	217	215	215
56	213	217	214	214	214
57	293	298	298	298	298
58	288	294	294	294	290
59	279	281	280	280	280
61	138	139	139	139	139
62	146	152	150	147	147
63	145	147	147	147	147
64	131	131	131	131	131
65	161	165	165	164	161
a1	253	259	258	258	258
a2	252	261	260	259	256
a3	232	240	240	237	235
a4	234	238	238	238	238
a5	236	240	239	239	238
b1	69	70	69	69	69
b2	76	79	78	76	76
b3	80	82	82	82	81
b4	79	83	81	81	81
b5	72	73	73	73	72
c1	227	237	237	234	233
c2	219	230	230	229	229
c3	243	253	253	250	250
c4	219	228	225	225	225
c5	215	224	223	218	218
d1	60	63	63	63	62
d2	66	68	68	68	67
d3	72	73	73	73	73
d4	62	65	64	64	63
d5	61	63	62	62	62
