Inst 	 It 20 	 It 50 	 It 100 	 It 200 
42	6563776	16212914	32422838	65387712
43	5496961	14102634	27867757	56165456
44	6168979	15663406	31332340	62742102
45	5294670	13152439	26203925	51852604
46	6473678	16256782	33614405	67396414
47	6413411	15850880	32046742	64461800
48	5143678	12917293	25727481	51782326
49	6110760	15615733	31794399	63589555
51	12276148	30024248	59946076	119017179
52	11197606	30145781	62327137	124655836
53	10729061	26908869	54505154	109674874
54	11267646	28101267	57376563	114633562
55	10431332	26489522	53345225	105919586
56	12939483	33853141	66859265	136345065
57	11401124	28252020	55556183	111649388
58	12731423	32187434	65779660	134196996
59	12980536	31904726	62505881	126807415
61	4754143	11829307	23648063	47572352
62	4454033	11740555	23452657	47479209
63	4478058	10957742	21770738	43930429
64	4827758	11576824	23760607	47585706
65	4775426	12186677	24000217	49600511
a1	23543409	64728615	133805673	268049933
a2	25841047	66617526	136233576	273869036
a3	23520138	61548768	128043582	254792112
a4	27022823	67055801	131431071	259123004
a5	25200296	62357445	122860925	246338957
b1	18277176	47777101	97006539	192042710
b2	21184234	50029605	99986092	200581561
b3	18866473	47002475	94121818	192554392
b4	19618590	48444801	96135545	193297256
b5	19394157	48950385	99185790	198794998
c1	48688367	118740636	232774433	459294432
c2	46975159	111262703	216278073	433872922
c3	44523771	112877648	225277142	446784268
c4	44502943	111450299	222183743	441580696
c5	46162554	111151744	224164286	443605138
d1	33565641	85806094	173542395	347693407
d2	35746072	83340277	165476439	328816416
d3	33116098	81149090	166612979	337484756
d4	33168325	86103763	172470312	345042295
d5	34025587	82592061	168802976	340722024
