Inst 	 Benchmark 	 It 20 Avg 	 It 50 Avg 	 It 100 Avg 	 It 200 Avg 
42	512	547	527	527	527
43	516	555	554	554	554
44	494	539	539	539	528
45	512	549	546	541	539
46	560	638	593	589	583
47	430	462	440	440	440
48	492	543	540	530	530
49	641	675	675	675	675
51	253	300	293	292	292
52	302	369	350	350	339
53	226	275	256	256	256
54	242	291	280	272	272
55	211	256	248	248	248
56	213	242	242	242	238
57	293	329	329	329	329
58	288	313	313	313	313
59	279	313	313	313	313
61	138	163	153	153	152
62	146	161	161	156	154
63	145	165	161	159	159
64	131	138	138	138	137
65	161	191	190	186	172
a1	253	311	290	290	290
a2	252	312	291	291	291
a3	232	289	289	289	286
a4	234	317	312	285	278
a5	236	325	309	282	282
b1	69	89	89	88	85
b2	76	98	98	98	95
b3	80	113	101	101	99
b4	79	109	109	109	99
b5	72	101	92	92	88
c1	227	333	319	313	288
c2	219	317	290	290	274
c3	243	315	315	273	273
c4	219	294	274	270	270
c5	215	293	293	293	293
d1	60	93	79	79	79
d2	66	94	94	94	89
d3	72	103	103	93	92
d4	62	94	89	89	83
d5	61	100	88	88	88
