Inst 	 It 20 	 It 50 	 It 100 	 It 200 
42	6452535	16708520	33415384	66579079
43	6427027	16029092	31927883	63761805
44	6503613	15976461	32587114	66116215
45	5650805	14304009	28697662	59219248
46	6065823	15410954	32114289	64255042
47	6551588	16501777	32874400	65853220
48	6003113	15326031	30655136	61310231
49	6343442	16178830	32807795	65504142
51	12195659	32682054	64526612	128687130
52	13399701	34958203	70287396	134115225
53	12890663	32245798	64084507	126846547
54	13692547	32775449	65979449	132075128
55	13342701	31623119	64619201	129996698
56	13692544	34281185	67805216	136910006
57	13721957	34150006	68815209	137935149
58	13634217	35068368	70188469	137460364
59	13464360	33727758	67471936	136699849
61	4928806	12429950	24984774	51267459
62	4623131	11908858	24375308	49382834
63	4960957	11945374	24104411	47767064
64	4720518	12217420	25506634	50311536
65	5401810	12633326	25465651	51023660
a1	27959153	71451773	147660825	304399887
a2	33325197	76428963	155303695	307281091
a3	29484453	73324612	146695996	300806431
a4	28500249	72410153	148790562	296492659
a5	28171546	71779999	149120260	296543564
b1	21512695	57294348	116721821	234526730
b2	23397631	57588759	113274408	226114829
b3	25774475	63169860	124449778	241645034
b4	22880739	56840918	111834458	226077777
b5	21428193	56291630	113870124	230620249
c1	54557258	135321086	266738424	545067401
c2	52588203	135112167	271040525	530865156
c3	58323691	140046066	276432900	534410739
c4	54499834	132784097	264895605	529461081
c5	54194133	130217144	262478678	525706167
d1	42440726	106148104	210638439	413334357
d2	39024478	102192029	202430872	406225933
d3	40370140	104585886	206666636	414303218
d4	41534875	101427105	208120587	419590376
d5	42215569	101244654	204660859	406798679
