Inst 	 It 20 	 It 50 	 It 100 	 It 200 
42	6496076	16762666	33937943	67557659
43	6306371	16052930	31182551	62861529
44	6500729	15860575	32084102	65689050
45	6066307	14565703	30423947	59514050
46	6299368	15631287	32220160	64337257
47	6162057	15749501	31861169	64014542
48	5935334	15089784	29929117	61081246
49	6071861	15512129	32663018	66694344
51	13225866	31645163	63492000	128124828
52	14359279	34394262	69459655	137405635
53	13841023	33818624	64763305	127754362
54	13297841	33138303	66832595	135333918
55	13590835	32945201	65822385	131917570
56	13234762	34948080	69836897	139241817
57	14038004	35522009	69966062	140064560
58	13753895	33786640	67733599	134392599
59	13183334	33851746	67782029	137109678
61	5190704	12693838	25354077	50411417
62	4610027	12054109	24145456	48214686
63	4709194	11705964	23564361	47098557
64	4818901	12589150	24718091	49915207
65	5228509	13376933	26800314	52031917
a1	31946551	77846577	158699265	316951881
a2	30398190	76657043	151206310	302646970
a3	28686300	69487014	145424526	295724423
a4	29501169	73331690	149803066	303537020
a5	30216493	73204629	146118442	297109402
b1	22238469	57258343	118513744	235576867
b2	22958130	55545122	112187364	225542284
b3	22879598	60741619	120297173	242299803
b4	23900866	59305647	117024547	230099458
b5	24005171	59441188	118035663	239059411
c1	56880239	143205838	276890142	543732176
c2	57158502	138204828	262570857	534987653
c3	54426071	135568189	276531292	544679672
c4	54544781	138581381	276953468	555348785
c5	54889950	129713917	252361009	518212957
d1	41838294	103250430	209028705	407387176
d2	41377265	104325937	208653398	421806217
d3	43694965	105888728	210656269	419484329
d4	43154443	99421078	211091119	422836650
d5	42833126	101899800	204676922	410131347
